/home/diallo/EJBLabs/Projet2018/EJB-31-entity-bean-example/ejb-31-entity-bean-example-client/src/main/java/enterprise/entity_bean_client/ClientPrincipale.java
/home/diallo/EJBLabs/Projet2018/EJB-31-entity-bean-example/ejb-31-entity-bean-example-client/src/main/java/enterprise/entity_bean_client/AdministrateurClient.java
/home/diallo/EJBLabs/Projet2018/EJB-31-entity-bean-example/ejb-31-entity-bean-example-client/src/main/java/enterprise/entity_bean_client/OrderClient.java
